{
    "redirectUri": "https://hops.alpha2.livspace.com/redirect",
    "clientId": "HS ADMIN",
    "openIdConnectUrl": "https://auth-st.livspace.com",
    "baseUrl": "https://api.alpha2.livspace.com",
    "constants": {
      "HOME_SERVICE_CATEGORY_ID": 140,
      "HOME_SERVICE_PREMIUM_FEATURE_ID": 294
    }
}